…
## group_by

``` r
weather_df |>
  group_by(name, month)
```

    ## # A tibble: 2,190 × 7
    ## # Groups:   name, month [72]
    ##    name           id          date        prcp  tmax  tmin month     
    ##    <chr>          <chr>       <date>     <dbl> <dbl> <dbl> <date>    
    ##  1 CentralPark_NY USW00094728 2021-01-01   157   4.4   0.6 2021-01-01
    ##  2 CentralPark_NY USW00094728 2021-01-02    13  10.6   2.2 2021-01-01
    ##  3 CentralPark_NY USW00094728 2021-01-03    56   3.3   1.1 2021-01-01
    ##  4 CentralPark_NY USW00094728 2021-01-04     5   6.1   1.7 2021-01-01
    ##  5 CentralPark_NY USW00094728 2021-01-05     0   5.6   2.2 2021-01-01
    ##  6 CentralPark_NY USW00094728 2021-01-06     0   5     1.1 2021-01-01
    ##  7 CentralPark_NY USW00094728 2021-01-07     0   5    -1   2021-01-01
    ##  8 CentralPark_NY USW00094728 2021-01-08     0   2.8  -2.7 2021-01-01
    ##  9 CentralPark_NY USW00094728 2021-01-09     0   2.8  -4.3 2021-01-01
    ## 10 CentralPark_NY USW00094728 2021-01-10     0   5    -1.6 2021-01-01
    ## # ℹ 2,180 more rows

``` r
#一共3个name，24个month 所以groupby（name，month）有72组
```

counting stuff

``` r
weather_df |>
  group_by(month) |>
  summarize(n_obs = n())
```

    ## # A tibble: 24 × 2
    ##    month      n_obs
    ##    <date>     <int>
    ##  1 2021-01-01    93
    ##  2 2021-02-01    84
    ##  3 2021-03-01    93
    ##  4 2021-04-01    90
    ##  5 2021-05-01    93
    ##  6 2021-06-01    90
    ##  7 2021-07-01    93
    ##  8 2021-08-01    93
    ##  9 2021-09-01    90
    ## 10 2021-10-01    93
    ## # ℹ 14 more rows

``` r
weather_df |>
  group_by(name, month) |>
  summarize(n_obs = n())
```

    ## `summarise()` has grouped output by 'name'. You can override using the
    ## `.groups` argument.

    ## # A tibble: 72 × 3
    ## # Groups:   name [3]
    ##    name           month      n_obs
    ##    <chr>          <date>     <int>
    ##  1 CentralPark_NY 2021-01-01    31
    ##  2 CentralPark_NY 2021-02-01    28
    ##  3 CentralPark_NY 2021-03-01    31
    ##  4 CentralPark_NY 2021-04-01    30
    ##  5 CentralPark_NY 2021-05-01    31
    ##  6 CentralPark_NY 2021-06-01    30
    ##  7 CentralPark_NY 2021-07-01    31
    ##  8 CentralPark_NY 2021-08-01    31
    ##  9 CentralPark_NY 2021-09-01    30
    ## 10 CentralPark_NY 2021-10-01    31
    ## # ℹ 62 more rows
…
``` r
weather_df |>
  group_by(name,month) |>
  summarize(
    mean_tmax = mean(tmax, na.rm = TRUE),
    mean_prec = mean(prcp, na.rm = TRUE),
    median_tmax = median(tmax, na.rm = TRUE),
    sd_tmax = sd(tmax, na.rm = TRUE))
```

    ## `summarise()` has grouped output by 'name'. You can override using the
    ## `.groups` argument.

    ## # A tibble: 72 × 6
    ## # Groups:   name [3]
    ##    name           month      mean_tmax mean_prec median_tmax sd_tmax
    ##    <chr>          <date>         <dbl>     <dbl>       <dbl>   <dbl>
    ##  1 CentralPark_NY 2021-01-01      4.27      18.9         5      3.34
    ##  2 CentralPark_NY 2021-02-01      3.87      46.6         2.8    3.99
    ##  3 CentralPark_NY 2021-03-01     12.3       28.0        12.2    6.91
    ##  4 CentralPark_NY 2021-04-01     17.6       22.8        18.0    5.26
    ##  5 CentralPark_NY 2021-05-01     22.1       35.7        22.2    5.63
    ##  6 CentralPark_NY 2021-06-01     28.1       22.2        27.8    4.32
    ##  7 CentralPark_NY 2021-07-01     28.4       90.9        28.3    3.17
    ##  8 CentralPark_NY 2021-08-01     28.8       84.5        28.3    2.95
    ##  9 CentralPark_NY 2021-09-01     24.8       84.9        24.4    2.52
    ## 10 CentralPark_NY 2021-10-01     19.9       43.1        20.6    3.66
    ## # ℹ 62 more rows

If you want to summarize multiple columns using the same summary, the
across function is helpful.

``` r
weather_df |>
  group_by(name, month) |>
  summarize(across(tmin:prcp, mean))
```

    ## `summarise()` has grouped output by 'name'. You can override using the
    ## `.groups` argument.

    ## # A tibble: 72 × 5
    ## # Groups:   name [3]
    ##    name           month       tmin  tmax  prcp
    ##    <chr>          <date>     <dbl> <dbl> <dbl>
    ##  1 CentralPark_NY 2021-01-01 -1.15  4.27  18.9
    ##  2 CentralPark_NY 2021-02-01 -1.39  3.87  46.6
    ##  3 CentralPark_NY 2021-03-01  3.1  12.3   28.0
    ##  4 CentralPark_NY 2021-04-01  7.48 17.6   22.8
    ##  5 CentralPark_NY 2021-05-01 12.2  22.1   35.7
    ##  6 CentralPark_NY 2021-06-01 18.9  28.1   22.2
    ##  7 CentralPark_NY 2021-07-01 20.6  28.4   90.9
    ##  8 CentralPark_NY 2021-08-01 21.8  28.8   84.5
    ##  9 CentralPark_NY 2021-09-01 17.8  24.8   84.9
    ## 10 CentralPark_NY 2021-10-01 13.4  19.9   43.1
    ## # ℹ 62 more rows
…
## Windows functions

Find the hottest/coldest day

``` r
weather_df |>
  group_by(name, month) |>
  mutate(temp_ranking = min_rank(tmax)) |>
  filter(temp_ranking < 4)
```

    ## # A tibble: 268 × 8
    ## # Groups:   name, month [72]
    ##    name           id        date        prcp  tmax  tmin month      temp_ranking
    ##    <chr>          <chr>     <date>     <dbl> <dbl> <dbl> <date>            <int>
    ##  1 CentralPark_NY USW00094… 2021-01-24     0   0    -5.5 2021-01-01            3
    ##  2 CentralPark_NY USW00094… 2021-01-29     0  -3.8  -9.9 2021-01-01            1
    ##  3 CentralPark_NY USW00094… 2021-01-30     0   0    -8.2 2021-01-01            3
    ##  4 CentralPark_NY USW00094… 2021-01-31    30  -3.2  -6.6 2021-01-01            2
    ##  5 CentralPark_NY USW00094… 2021-02-08     0  -1.6  -8.2 2021-02-01            1
    ##  6 CentralPark_NY USW00094… 2021-02-12     0  -1    -6.6 2021-02-01            2
    ##  7 CentralPark_NY USW00094… 2021-02-13     0  -1    -3.8 2021-02-01            2
    ##  8 CentralPark_NY USW00094… 2021-02-18   114  -1    -4.3 2021-02-01            2
    ##  9 CentralPark_NY USW00094… 2021-03-02     0   0.6  -6   2021-03-01            1
    ## 10 CentralPark_NY USW00094… 2021-03-05     0   2.8  -4.9 2021-03-01            3
    ## # ℹ 258 more rows
…
